1 10 20
100 200 125
201 210 89
900 1000 174
1 1000 179
50000 20000 324
1001 2000 182
2001 3000 217
3001 4000 238
4001 5000 215
5001 6000 236
6001 7000 262
7001 8000 252
8001 9000 247
9001 10000 260
10001 11000 268
11001 12000 250
12001 13000 263
13001 14000 276
14001 15000 271
15001 16000 271
16001 17000 266
17001 18000 279
18001 19000 261
19001 20000 274
20001 21000 256
21001 22000 269
22001 23000 269
23001 24000 282
24001 25000 264
25001 26000 264
26001 27000 308
27001 28000 259
28001 29000 259
29001 30000 272
30001 31000 272
31001 32000 285
32001 33000 267
33001 34000 267
34001 35000 311
35001 36000 324
36001 37000 249
37001 38000 306
38001 39000 244
39001 40000 306
40001 41000 288
41001 42000 257
42001 43000 288
43001 44000 270
44001 45000 270
45001 46000 314
46001 47000 283
47001 48000 314
48001 49000 296
49001 50000 296
50001 51000 278
51001 52000 309
52001 53000 340
53001 54000 322
54001 55000 260
55001 56000 260
56001 57000 322
57001 58000 304
58001 59000 273
59001 60000 304
60001 61000 335
61001 62000 317
62001 63000 286
63001 64000 330
64001 65000 299
65001 66000 268
66001 67000 268
67001 68000 312
68001 69000 312
69001 70000 299
70001 71000 312
71001 72000 325
72001 73000 263
73001 74000 294
74001 75000 325
75001 76000 307
76001 77000 307
77001 78000 351
78001 79000 338
79001 80000 307
80001 81000 320
81001 82000 320
82001 83000 320
83001 84000 289
84001 85000 320
85001 86000 302
86001 87000 302
87001 88000 333
88001 89000 333
89001 90000 315
90001 91000 315
91001 92000 333
92001 93000 315
93001 94000 284
94001 95000 315
95001 96000 328
96001 97000 297
97001 98000 297
98001 99000 284
99001 100000 328
100001 101000 341
101001 102000 310
102001 103000 310
103001 104000 248
104001 105000 310
105001 106000 341
106001 107000 354
107001 108000 292
108001 109000 279
109001 110000 310
110001 111000 292
111001 112000 323
112001 113000 323
113001 114000 292
114001 115000 305
115001 116000 349
116001 117000 305
117001 118000 305
118001 119000 336
119001 120000 305
120001 121000 318
121001 122000 336
122001 123000 318
123001 124000 331
124001 125000 287
125001 126000 318
126001 127000 331
127001 128000 287
128001 129000 331
129001 130000 344
130001 131000 331
131001 132000 300
132001 133000 331
133001 134000 313
134001 135000 300
135001 136000 344
136001 137000 313
137001 138000 331
138001 139000 313
139001 140000 313
140001 141000 344
141001 142000 326
142001 143000 375
143001 144000 282
144001 145000 326
145001 146000 295
146001 147000 357
147001 148000 295
148001 149000 326
149001 150000 326
150001 151000 370
151001 152000 295
152001 153000 308
153001 154000 308
154001 155000 352
155001 156000 308
156001 157000 383
157001 158000 339
158001 159000 321
159001 160000 352
160001 161000 370
161001 162000 290
162001 163000 339
163001 164000 321
164001 165000 334
165001 166000 321
166001 167000 352
167001 168000 321
168001 169000 321
169001 170000 334
895001 896000 326
896001 897000 370
897001 898000 339
898001 899000 370
899001 900000 295
900001 901000 401
901001 902000 401
902001 903000 383
903001 904000 295
904001 905000 383
905001 906000 295
906001 907000 445
907001 908000 326
908001 909000 370
909001 910000 326
910001 911000 476
911001 912000 383
912001 913000 401
913001 914000 357
914001 915000 370
915001 916000 339
916001 917000 339
917001 918000 383
918001 919000 339
919001 920000 432
920001 921000 339
921001 922000 339
922001 923000 445
923001 924000 308
924001 925000 370
925001 926000 339
926001 927000 370
927001 928000 476
928001 929000 383
929001 930000 339
930001 931000 370
931001 932000 308
932001 933000 370
933001 934000 370
934001 935000 414
935001 936000 414
936001 937000 383
937001 938000 352
938001 939000 445
939001 940000 507
940001 941000 383
941001 942000 339
942001 943000 339
943001 944000 352
944001 945000 383
945001 946000 352
946001 947000 383
947001 948000 383
948001 949000 383
949001 950000 352
950001 951000 414
951001 952000 383
952001 953000 414
953001 954000 414
954001 955000 383
955001 956000 339
956001 957000 352
957001 958000 352
958001 959000 321
959001 960000 352
960001 961000 414
961001 962000 352
962001 963000 383
963001 964000 414
964001 965000 352
965001 966000 321
966001 967000 365
967001 968000 308
968001 969000 321
969001 970000 352
970001 971000 458
971001 972000 352
972001 973000 321
973001 974000 383
974001 975000 383
975001 976000 339
976001 977000 383
977001 978000 334
978001 979000 383
979001 980000 334
980001 981000 427
981001 982000 321
982001 983000 383
983001 984000 383
984001 985000 352
985001 986000 427
986001 987000 352
987001 988000 396
988001 989000 321
989001 990000 352
990001 991000 321
991001 992000 321
992001 993000 352
993001 994000 290
994001 995000 365
995001 996000 365
996001 997000 365
997001 998000 440
998001 999000 396
